<?xml version="1.0" encoding="utf-8"?>
<!-- Generator: Adobe Illustrator 16.0.0, SVG Export Plug-In . SVG Version: 6.00 Build 0)  -->
<!DOCTYPE svg PUBLIC "-//W3C//DTD SVG 1.1//EN" "http://www.w3.org/Graphics/SVG/1.1/DTD/svg11.dtd">
<svg version="1.1"
	 id="svg8" xmlns:cc="http://creativecommons.org/ns#" xmlns:dc="http://purl.org/dc/elements/1.1/" xmlns:rdf="http://www.w3.org/1999/02/22-rdf-syntax-ns#" xmlns:svg="http://www.w3.org/2000/svg" xmlns:inkscape="http://www.inkscape.org/namespaces/inkscape" xmlns:sodipodi="http://sodipodi.sourceforge.net/DTD/sodipodi-0.dtd" inkscape:version="0.91 r13725" sodipodi:docname="PeppermintOS_logo-material_lapped-lightened-no-dropshadow.svg"
	 xmlns="http://www.w3.org/2000/svg" xmlns:xlink="http://www.w3.org/1999/xlink" x="0px" y="0px" width="500px" height="500px"
	 viewBox="118.95 115.771 500 500" enable-background="new 118.95 115.771 500 500" xml:space="preserve">
<circle fill="#FFFFFF" cx="368.95" cy="365.771" r="249.813"/>
<g>
	<polygon fill="none" points="366.938,130.36 366.927,130.36 366.938,130.36 	"/>
	<path fill="none" d="M295.001,469.815c2.72,6.732,7.075,13.947,12.806,21.243c-3.875-39.318,0.221-60.002,17.201-82.912
		c1.967,6.984,6.072,15.305,12.124,23.223c4.877-28.238,16.545-51.934,31.749-65.781c-26.091,3.646-56.428,23.785-79.297,55.414
		c-1.678-7.306-1.839-16.667-0.113-26.954c-25.059,8.129-51.431,33.217-68.471,68.352c-1.546-8.61-2.318-18.135-2.177-28.29
		c-15.441,8.199-30.148,23.874-41.424,44.463c14.751,24.77,34.63,47.037,59.386,65.108c10.698,7.81,21.865,14.505,33.36,20.125
		c-0.333-0.398-0.512-0.621-0.512-0.621C266.923,524.236,277.308,489.344,295.001,469.815z"/>
	<path fill="none" d="M315.564,249.496c-7.195-1.023-15.623-0.865-24.796,0.46c35.988,16.308,51.843,30.188,63.192,56.351
		c-7.035-1.786-16.276-2.388-26.171-1.113c22.018,18.355,36.708,40.313,41.093,60.394c0.045,0.058,0.095,0.115,0.14,0.173
		c26.085-3.681,56.375-23.805,79.232-55.406c1.668,7.306,1.83,16.671,0.103,26.958c25.06-8.129,51.443-33.23,68.483-68.364
		c1.534,8.61,2.311,18.155,2.18,28.3c14.46-7.679,28.282-21.911,39.241-40.601c-14.954-26.306-35.594-49.942-61.618-68.942
		c-9.147-6.675-18.639-12.532-28.384-17.606c2.196,38.093-8.125,72.084-25.496,91.259c-2.729-6.733-7.075-13.961-12.796-21.237
		c3.864,39.319-0.238,59.994-17.208,82.895c-1.968-6.985-6.073-15.285-12.125-23.223c-4.878,28.249-16.558,51.944-31.75,65.792
		c9.885-24.426,7.608-60.754-8.347-96.39c7.166,2.208,15.362,6.752,23.4,13.386c5.479-25.771-3.052-61.167-24.969-93.472
		c8.24,2.96,16.881,7.056,25.602,12.255c0.604-16.873-5.188-36.639-16.566-56.038c-0.37-0.002-0.74-0.011-1.11-0.011
		c-42.362,0.006-84.364,12.19-120.446,35.674c0.616-0.108,0.945-0.159,0.945-0.159C282.478,197.952,307.505,224.407,315.564,249.496
		z"/>
	<path fill="none" d="M241.683,353.705c-4.486,5.74-8.549,13.128-12.001,21.728c32.124-23.021,52.075-29.817,80.415-26.565
		c-5.078,5.198-10.217,12.917-14.06,22.12c26.895-9.906,53.256-11.642,72.845-5.399c0,0,0.001-0.001,0.001-0.001
		c-16.207-20.764-48.811-36.982-87.648-40.976c5.5-5.099,13.526-9.916,23.291-13.559c-19.56-17.643-54.481-27.938-93.429-25.128
		c6.693-5.64,14.562-11.078,23.414-16.036c-14.785-9.25-35.65-14.146-59.049-13.644c-22.438,39.099-31.641,82.846-28.506,125.503
		c0.719-2.13,1.179-3.315,1.179-3.315C180.507,356.605,215.922,348.155,241.683,353.705z"/>
	<path fill="none" d="M496.157,377.644c4.476-5.729,8.552-13.106,11.993-21.707c-32.113,23.012-52.063,29.793-80.403,26.552
		c5.076-5.198,10.217-12.905,14.061-22.117c-26.847,9.877-53.162,11.631-72.75,5.43c16.274,20.668,48.774,36.77,87.486,40.761
		c-5.499,5.098-13.538,9.922-23.302,13.564c19.567,17.623,54.493,27.932,93.431,25.12c-6.684,5.642-14.551,11.079-23.414,16.036
		c13.887,8.694,33.138,13.551,54.813,13.688c21.458-37.467,30.771-79.189,28.728-120.128
		C555.217,375.244,521.139,383.038,496.157,377.644z"/>
	<path fill="none" d="M422.211,481.688c7.197,1.004,15.627,0.852,24.799-0.474c-35.986-16.307-51.844-30.184-63.195-56.346
		c7.025,1.785,16.279,2.387,26.175,1.112c-22.028-18.345-36.712-40.312-41.107-60.394c0,0,0,0,0,0.001l0,0l0,0
		c-9.885,24.416-7.616,60.752,8.351,96.379c-7.176-2.197-15.365-6.752-23.404-13.376c-5.489,25.771,3.053,61.155,24.96,93.479
		c-8.229-2.971-16.872-7.063-25.592-12.262c-0.607,16.922,5.223,36.758,16.668,56.214c41.824-0.633,83.152-13.116,118.631-36.628
		C454.406,532.246,430.125,506.313,422.211,481.688z"/>
	<polygon fill="#DA2A2F" points="368.882,365.588 368.882,365.587 368.881,365.588 	"/>
	<path fill="#DA2A2F" d="M353.197,529.809c8.721,5.198,17.364,9.291,25.592,12.262c-21.907-32.324-30.449-67.708-24.96-93.479
		c8.039,6.624,16.228,11.179,23.404,13.376c-15.967-35.627-18.236-71.963-8.351-96.379c-0.001,0-0.001,0-0.001,0
		c-15.204,13.848-26.872,37.543-31.749,65.781c-6.052-7.918-10.157-16.238-12.124-23.223c-16.98,22.91-21.076,43.594-17.201,82.912
		c-5.731-7.296-10.086-14.511-12.806-21.243c-17.693,19.528-28.078,54.421-25.368,93.369c0,0,0.18,0.223,0.512,0.621
		c30.63,14.976,63.606,22.265,96.379,22.265c1.114,0,2.228-0.031,3.342-0.048C358.42,566.566,352.59,546.73,353.197,529.809z"/>
	<path fill="#DA2A2F" d="M218.823,434.109c-0.142,10.155,0.631,19.68,2.177,28.29c17.04-35.135,43.413-60.223,68.471-68.352
		c-1.726,10.287-1.565,19.648,0.113,26.954c22.87-31.629,53.207-51.769,79.297-55.414c0,0,0,0,0.001,0l0,0l0,0
		c-0.001,0-0.001,0-0.001,0c-19.589-6.242-45.951-4.506-72.845,5.399c3.843-9.203,8.982-16.922,14.06-22.12
		c-28.34-3.252-48.291,3.544-80.415,26.565c3.453-8.6,7.515-15.988,12.001-21.728c-25.761-5.55-61.175,2.9-93.55,24.727
		c0,0-0.46,1.186-1.179,3.315c2.494,33.935,12.787,67.174,30.446,96.825C188.675,457.983,203.382,442.309,218.823,434.109z"/>
	<path fill="#DA2A2F" d="M234.509,269.888c-8.852,4.958-16.72,10.396-23.414,16.036c38.948-2.81,73.87,7.486,93.429,25.128
		c-9.765,3.643-17.791,8.46-23.291,13.559c38.837,3.994,71.441,20.212,87.648,40.976c-4.385-20.081-19.075-42.039-41.093-60.394
		c9.895-1.274,19.136-0.673,26.171,1.113c-11.35-26.163-27.205-40.043-63.192-56.351c9.173-1.325,17.601-1.483,24.796-0.46
		c-8.059-25.089-33.086-51.544-68.17-68.665c0,0-0.329,0.051-0.945,0.159c-21.813,14.197-41.463,32.521-57.717,54.789
		c-4.854,6.65-9.266,13.486-13.271,20.465C198.859,255.742,219.725,260.639,234.509,269.888z"/>
	<path fill="#DA2A2F" d="M384.571,201.365c-8.721-5.199-17.361-9.294-25.602-12.255c21.917,32.305,30.447,67.7,24.969,93.472
		c-8.038-6.634-16.234-11.179-23.4-13.386c15.955,35.636,18.231,71.964,8.347,96.39c15.192-13.848,26.872-37.543,31.75-65.792
		c6.052,7.938,10.157,16.238,12.125,23.223c16.97-22.901,21.072-43.576,17.208-82.895c5.721,7.276,10.066,14.503,12.796,21.237
		c17.371-19.175,27.692-53.166,25.496-91.259c-31.676-16.493-66.058-24.601-100.255-24.772
		C379.382,164.727,385.175,184.492,384.571,201.365z"/>
	<path fill="#DA2A2F" d="M519.02,297.248c0.131-10.146-0.646-19.69-2.18-28.3c-17.04,35.134-43.424,60.235-68.483,68.364
		c1.728-10.287,1.565-19.651-0.103-26.958c-22.857,31.601-53.147,51.725-79.232,55.406c0.012,0.014,0.023,0.028,0.035,0.042
		c19.588,6.201,45.903,4.447,72.75-5.43c-3.844,9.212-8.984,16.919-14.061,22.117c28.341,3.241,48.29-3.54,80.403-26.552
		c-3.441,8.601-7.518,15.977-11.993,21.707c24.982,5.395,59.061-2.399,90.643-22.799c-1.711-34.277-11.37-67.998-28.538-98.198
		C547.302,275.336,533.48,289.568,519.02,297.248z"/>
	<path fill="#DA2A2F" d="M526.672,445.248c-38.938,2.812-73.863-7.497-93.431-25.12c9.764-3.643,17.803-8.467,23.302-13.564
		c-38.712-3.991-71.212-20.093-87.486-40.761c-0.012-0.014-0.023-0.028-0.035-0.042c-0.045-0.058-0.095-0.115-0.14-0.173
		c4.396,20.082,19.079,42.049,41.107,60.394c-9.896,1.274-19.149,0.673-26.175-1.112c11.352,26.162,27.209,40.039,63.195,56.346
		c-9.172,1.325-17.602,1.478-24.799,0.474c7.914,24.625,32.194,50.559,66.285,67.707c21.205-14.054,40.326-32.028,56.2-53.776
		c4.896-6.707,9.343-13.604,13.375-20.646c-21.676-0.138-40.927-4.994-54.813-13.688
		C512.122,456.327,519.989,450.89,526.672,445.248z"/>
	<polyline fill="none" stroke="#DA2A2F" stroke-width="0" stroke-linecap="round" stroke-linejoin="round" points="366.938,130.36 
		366.938,130.36 366.927,130.36 	"/>
	<path fill="#DA2A2F" d="M597.906,329.613c-9.629-61.755-42.738-116.059-93.227-152.905
		c-40.328-29.442-87.967-45.013-137.742-45.015c-0.004,0-0.007,0-0.011,0h-0.021c-74.549,0.011-145.272,35.916-189.169,96.053
		c-76.068,104.204-53.175,250.875,51.027,326.944c40.352,29.444,87.983,45.005,137.774,45.005c74.56,0,145.272-35.907,189.18-96.044
		C592.561,453.172,607.554,391.367,597.906,329.613z M556.989,474.354c-4.01,7.002-8.431,13.859-13.3,20.528
		c-15.784,21.625-34.797,39.498-55.882,53.472c-35.277,23.379-76.371,35.792-117.959,36.421c-1.107,0.017-2.215,0.048-3.322,0.048
		c-32.587,0-65.377-7.248-95.833-22.139c-11.43-5.589-22.533-12.246-33.171-20.011c-24.615-17.97-44.381-40.11-59.049-64.74
		c-17.559-29.483-27.793-62.534-30.273-96.276c-3.117-42.415,6.034-85.915,28.345-124.792c3.982-6.939,8.37-13.737,13.196-20.349
		c16.162-22.142,35.701-40.362,57.39-54.478c35.877-23.351,77.641-35.467,119.763-35.473c0.368,0,0.736,0.009,1.104,0.011
		c34.004,0.17,68.19,8.232,99.687,24.632c9.69,5.045,19.128,10.869,28.224,17.506c25.877,18.892,46.399,42.394,61.269,68.551
		c17.071,30.029,26.676,63.559,28.377,97.642C587.585,395.612,578.325,437.099,556.989,474.354z"/>
</g>
</svg>
