<?xml version="1.0" encoding="UTF-8" standalone="no"?>
<svg
   xmlns:dc="http://purl.org/dc/elements/1.1/"
   xmlns:cc="http://creativecommons.org/ns#"
   xmlns:rdf="http://www.w3.org/1999/02/22-rdf-syntax-ns#"
   xmlns:svg="http://www.w3.org/2000/svg"
   xmlns="http://www.w3.org/2000/svg"
   xmlns:sodipodi="http://sodipodi.sourceforge.net/DTD/sodipodi-0.dtd"
   xmlns:inkscape="http://www.inkscape.org/namespaces/inkscape"
   width="350mm"
   height="210mm"
   viewBox="0 0 350 210"
   version="1.1"
   id="svg8"
   inkscape:version="1.0.2 (e86c870879, 2021-01-15)"
   sodipodi:docname="Peppermint OS Master Logo 2.svg">
  <defs
     id="defs2" />
  <sodipodi:namedview
     id="base"
     pagecolor="#ffffff"
     bordercolor="#666666"
     borderopacity="1.0"
     inkscape:pageopacity="0.0"
     inkscape:pageshadow="2"
     inkscape:zoom="1.4878004"
     inkscape:cx="634.05019"
     inkscape:cy="396.85039"
     inkscape:document-units="mm"
     inkscape:current-layer="layer3"
     inkscape:document-rotation="0"
     showgrid="false"
     inkscape:window-width="1920"
     inkscape:window-height="1028"
     inkscape:window-x="0"
     inkscape:window-y="27"
     inkscape:window-maximized="1"
     showguides="true"
     inkscape:guide-bbox="true">
    <sodipodi:guide
       position="126.95303,126.74554"
       orientation="0,-1"
       id="guide134" />
    <sodipodi:guide
       position="141.51922,101.2213"
       orientation="-0.0057073147,-0.99998371"
       id="guide136" />
    <sodipodi:guide
       position="202.32304,137.30269"
       orientation="0,-1"
       id="guide278" />
    <sodipodi:guide
       position="48.664436,122.97098"
       orientation="0,-1"
       id="guide1137" />
    <sodipodi:guide
       position="58.113841,122.97098"
       orientation="1,0"
       id="guide1139" />
    <sodipodi:guide
       position="-229.31726,88.125093"
       orientation="0,-1"
       id="guide57" />
    <sodipodi:guide
       position="164.63803,85.051494"
       orientation="0,-1"
       id="guide59" />
    <sodipodi:guide
       position="123.86225,137.30269"
       orientation="1,0"
       id="guide108" />
  </sodipodi:namedview>
  <metadata
     id="metadata5">
    <rdf:RDF>
      <cc:Work
         rdf:about="">
        <dc:format>image/svg+xml</dc:format>
        <dc:type
           rdf:resource="http://purl.org/dc/dcmitype/StillImage" />
        <dc:title></dc:title>
      </cc:Work>
    </rdf:RDF>
  </metadata>
  <g
     inkscape:groupmode="layer"
     id="layer3"
     inkscape:label="Elipse">
    <ellipse
       style="fill:#000000;stroke-width:0.264583"
       id="path147"
       cx="152.66231"
       cy="103.73015"
       rx="79.027252"
       ry="36.435078" />
  </g>
  <g
     inkscape:groupmode="layer"
     id="layer4"
     inkscape:label="Logo Text" />
  <g
     inkscape:groupmode="layer"
     id="layer1"
     inkscape:label="Live Text">
    <g
       id="g104"
       transform="translate(-1.0113636,-0.3003693)">
      <text
         xml:space="preserve"
         style="font-style:normal;font-variant:normal;font-weight:normal;font-stretch:normal;font-size:45.8611px;line-height:1.25;font-family:sans-serif;-inkscape-font-specification:Cantarell;fill:#000000;fill-opacity:1;stroke:none;stroke-width:0.0701024"
         x="119.63417"
         y="108.76145"
         id="text1267-4"><tspan
           sodipodi:role="line"
           id="tspan1265-4"
           x="119.63417"
           y="108.76145"
           style="font-size:45.8611px;fill:#ff0000;stroke-width:0.0701024">mos</tspan></text>
      <g
         id="g210"
         transform="translate(93.662553)">
        <g
           id="g1147-54"
           transform="translate(-54.590471,0.05803518)">
          <path
             id="rect1133-7"
             style="fill:#ff0000;stroke-width:0.999999"
             d="m 249.89062,314.88086 a 44.34318,48.234781 0 0 0 -44.26171,47.85742 h -0.002 v 0.375 a 44.34318,48.234781 0 0 0 0,0.002 v 100.86524 h 14.01563 v -65.67774 a 44.34318,48.234781 0 0 0 30.32812,13.04688 44.34318,48.234781 0 0 0 44.34375,-48.23438 44.34318,48.234781 0 0 0 -44.34375,-48.23437 44.34318,48.234781 0 0 0 -0.0801,0 z m 0.25,14.04687 a 30.497481,34.66051 0 0 1 30.49805,34.66211 30.497481,34.66051 0 0 1 -30.49805,34.66016 30.497481,34.66051 0 0 1 -30.49804,-34.66016 30.497481,34.66051 0 0 1 30.49804,-34.66211 z"
             transform="matrix(0.26458333,0,0,0.26458333,-0.14016989,-0.05780899)" />
        </g>
        <rect
           id="rect61-6"
           width="3.7228434"
           height="10.032022"
           x="-0.33635685"
           y="114.91649"
           style="fill:#ff0000;stroke-width:0.261825" />
      </g>
    </g>
    <text
       xml:space="preserve"
       style="font-style:normal;font-variant:normal;font-weight:normal;font-stretch:normal;font-size:12.7px;line-height:1.25;font-family:sans-serif;-inkscape-font-specification:Cantarell;fill:#ffffff;fill-opacity:1;stroke:none;stroke-width:0.0701024;"
       x="121.92198"
       y="124.55711"
       id="text1323-5"><tspan
         sodipodi:role="line"
         id="tspan1321-0"
         x="121.92198"
         y="124.55711"
         style="font-style:normal;font-variant:normal;font-weight:normal;font-stretch:normal;font-size:12.7px;font-family:Cantarell;-inkscape-font-specification:Cantarell;stroke-width:0.0701024;fill:#ffffff;">less is more</tspan></text>
  </g>
</svg>
