<?xml version="1.0" encoding="utf-8"?>
<!-- Generator: Adobe Illustrator 16.0.0, SVG Export Plug-In . SVG Version: 6.00 Build 0)  -->
<!DOCTYPE svg PUBLIC "-//W3C//DTD SVG 1.1//EN" "http://www.w3.org/Graphics/SVG/1.1/DTD/svg11.dtd">
<svg version="1.1"
	 id="svg1657" xmlns:cc="http://creativecommons.org/ns#" xmlns:dc="http://purl.org/dc/elements/1.1/" xmlns:rdf="http://www.w3.org/1999/02/22-rdf-syntax-ns#" xmlns:svg="http://www.w3.org/2000/svg" xmlns:inkscape="http://www.inkscape.org/namespaces/inkscape" xmlns:sodipodi="http://sodipodi.sourceforge.net/DTD/sodipodi-0.dtd" inkscape:version="1.0.2 (e86c870879, 2021-01-15)" sodipodi:docname="logo.svg"
	 xmlns="http://www.w3.org/2000/svg" xmlns:xlink="http://www.w3.org/1999/xlink" x="0px" y="0px" width="500px" height="500px"
	 viewBox="50.322 115.108 500 500" enable-background="new 50.322 115.108 500 500" xml:space="preserve">
<circle fill="#FFFFFF" cx="300.509" cy="364.921" r="198.478"/>
<g>
	<polygon fill="none" points="298.91,177.886 298.901,177.886 298.91,177.886 	"/>
	<path fill="none" d="M241.756,447.584c2.161,5.349,5.621,11.081,10.175,16.877c-3.078-31.237,0.175-47.67,13.666-65.873
		c1.563,5.549,4.825,12.16,9.633,18.451c3.875-22.436,13.146-41.261,25.226-52.264c-20.73,2.896-44.833,18.897-63.003,44.027
		c-1.333-5.805-1.46-13.242-0.089-21.415c-19.909,6.458-40.862,26.391-54.4,54.305c-1.229-6.84-1.842-14.407-1.729-22.476
		c-12.269,6.515-23.954,18.967-32.912,35.326c11.72,19.679,27.513,37.37,47.182,51.728c8.5,6.205,17.372,11.525,26.505,15.989
		c-0.265-0.315-0.408-0.492-0.408-0.492C219.448,490.822,227.699,463.101,241.756,447.584z"/>
	<path fill="none" d="M258.094,272.54c-5.717-0.813-12.413-0.687-19.701,0.366c28.592,12.957,41.189,23.985,50.207,44.771
		c-5.589-1.419-12.932-1.897-20.793-0.884c17.494,14.583,29.165,32.028,32.649,47.982c0.035,0.046,0.074,0.091,0.11,0.138
		c20.725-2.925,44.79-18.914,62.95-44.021c1.325,5.805,1.454,13.246,0.081,21.418c19.91-6.458,40.872-26.401,54.41-54.315
		c1.22,6.841,1.836,14.424,1.733,22.485c11.488-6.101,22.47-17.409,31.177-32.257c-11.882-20.9-28.28-39.679-48.956-54.775
		c-7.268-5.303-14.809-9.957-22.552-13.988c1.745,30.265-6.455,57.271-20.257,72.506c-2.168-5.35-5.621-11.092-10.166-16.873
		c3.07,31.238-0.188,47.665-13.672,65.86c-1.563-5.549-4.826-12.144-9.633-18.45c-3.876,22.444-13.155,41.27-25.226,52.271
		c7.853-19.406,6.044-48.269-6.631-76.582c5.694,1.754,12.205,5.365,18.592,10.636c4.352-20.475-2.426-48.597-19.839-74.264
		c6.547,2.352,13.412,5.606,20.341,9.736c0.48-13.406-4.123-29.109-13.162-44.522c-0.294-0.001-0.588-0.008-0.882-0.008
		c-33.657,0.005-67.028,9.686-95.695,28.344c0.489-0.087,0.75-0.127,0.75-0.127C231.807,231.588,251.691,252.607,258.094,272.54z"/>
	<path fill="none" d="M199.395,355.334c-3.564,4.561-6.792,10.431-9.535,17.263c25.522-18.291,41.374-23.69,63.89-21.106
		c-4.034,4.131-8.118,10.263-11.17,17.574c21.368-7.87,42.312-9.249,57.876-4.29c0,0,0.001-0.001,0.001-0.001
		c-12.877-16.497-38.781-29.382-69.638-32.555c4.37-4.051,10.747-7.878,18.505-10.772c-15.54-14.017-43.285-22.197-74.229-19.965
		c5.318-4.48,11.569-8.801,18.602-12.741c-11.746-7.349-28.324-11.24-46.915-10.84c-17.828,31.065-25.139,65.821-22.648,99.712
		c0.572-1.691,0.937-2.634,0.937-2.634C150.791,357.638,178.928,350.925,199.395,355.334z"/>
	<path fill="none" d="M401.575,374.354c3.556-4.553,6.794-10.413,9.529-17.247c-25.515,18.284-41.365,23.671-63.881,21.096
		c4.032-4.129,8.117-10.254,11.172-17.572c-21.33,7.847-42.237,9.24-57.801,4.314c12.93,16.421,38.751,29.214,69.508,32.385
		c-4.369,4.05-10.757,7.882-18.514,10.777c15.547,14.001,43.295,22.192,74.231,19.958c-5.311,4.482-11.561,8.802-18.603,12.741
		c11.033,6.907,26.327,10.766,43.55,10.875c17.048-29.768,24.447-62.916,22.823-95.442
		C448.499,372.447,421.424,378.64,401.575,374.354z"/>
	<path fill="none" d="M342.825,457.017c5.718,0.797,12.416,0.677,19.703-0.376c-28.593-12.957-41.191-23.982-50.209-44.768
		c5.583,1.418,12.935,1.896,20.796,0.884c-17.501-14.575-29.167-32.028-32.659-47.983c0,0,0,0,0,0.001l0,0l0,0
		c-7.854,19.399-6.052,48.268,6.634,76.574c-5.701-1.746-12.207-5.364-18.594-10.628c-4.361,20.477,2.425,48.588,19.831,74.27
		c-6.538-2.36-13.405-5.611-20.334-9.741c-0.482,13.443,4.15,29.203,13.243,44.662c33.23-0.503,66.066-10.421,94.255-29.102
		C368.404,497.186,349.113,476.582,342.825,457.017z"/>
	<polygon fill="#DA2A2F" points="300.456,364.775 300.456,364.774 300.455,364.775 	"/>
	<path fill="#DA2A2F" d="M287.993,495.25c6.929,4.13,13.796,7.381,20.334,9.741c-17.406-25.682-24.192-53.793-19.831-74.27
		c6.387,5.264,12.893,8.882,18.594,10.628c-12.686-28.306-14.488-57.175-6.634-76.574c-0.001,0-0.001,0-0.001,0
		c-12.08,11.002-21.351,29.828-25.226,52.264c-4.808-6.291-8.069-12.902-9.633-18.451c-13.49,18.203-16.744,34.636-13.666,65.873
		c-4.554-5.796-8.014-11.528-10.175-16.877c-14.057,15.517-22.308,43.237-20.156,74.183c0,0,0.143,0.177,0.408,0.492
		c24.335,11.899,50.536,17.69,76.573,17.69c0.886,0,1.771-0.025,2.654-0.038C292.143,524.453,287.511,508.693,287.993,495.25z"/>
	<path fill="#DA2A2F" d="M181.233,419.216c-0.113,8.068,0.5,15.636,1.729,22.476c13.538-27.914,34.491-47.846,54.4-54.305
		c-1.371,8.173-1.244,15.61,0.089,21.415c18.17-25.129,42.273-41.13,63.003-44.027c0,0,0,0,0.001,0l0,0l0,0
		c-0.001,0-0.001,0-0.001,0c-15.564-4.959-36.508-3.581-57.876,4.29c3.053-7.312,7.137-13.443,11.17-17.574
		c-22.517-2.584-38.368,2.815-63.89,21.106c2.743-6.833,5.971-12.702,9.535-17.263c-20.467-4.409-48.604,2.304-74.326,19.646
		c0,0-0.365,0.942-0.937,2.634c1.981,26.961,10.159,53.37,24.189,76.929C157.28,438.183,168.965,425.731,181.233,419.216z"/>
	<path fill="#DA2A2F" d="M193.695,288.742c-7.033,3.939-13.284,8.26-18.602,12.741c30.944-2.232,58.689,5.948,74.229,19.965
		c-7.758,2.894-14.135,6.721-18.505,10.772c30.857,3.173,56.761,16.059,69.638,32.555c-3.484-15.954-15.155-33.399-32.649-47.982
		c7.861-1.013,15.204-0.535,20.793,0.884c-9.018-20.786-21.615-31.814-50.207-44.771c7.288-1.052,13.984-1.179,19.701-0.366
		c-6.403-19.933-26.287-40.952-54.162-54.554c0,0-0.261,0.04-0.75,0.127c-17.331,11.279-32.943,25.837-45.857,43.53
		c-3.856,5.283-7.361,10.714-10.543,16.259C165.371,277.502,181.949,281.393,193.695,288.742z"/>
	<path fill="#DA2A2F" d="M312.92,234.3c-6.929-4.13-13.794-7.385-20.341-9.736c17.413,25.667,24.19,53.789,19.839,74.264
		c-6.388-5.271-12.898-8.882-18.592-10.636c12.675,28.313,14.484,57.176,6.631,76.582c12.07-11.002,21.35-29.828,25.226-52.271
		c4.807,6.307,8.069,12.901,9.633,18.45c13.483-18.195,16.742-34.622,13.672-65.86c4.545,5.78,7.998,11.523,10.166,16.873
		c13.802-15.234,22.002-42.241,20.257-72.506c-25.165-13.104-52.482-19.545-79.652-19.682
		C308.797,205.191,313.4,220.894,312.92,234.3z"/>
	<path fill="#DA2A2F" d="M419.741,310.479c0.103-8.061-0.514-15.644-1.733-22.485c-13.538,27.914-34.5,47.857-54.41,54.315
		c1.373-8.172,1.244-15.613-0.081-21.418c-18.16,25.107-42.226,41.096-62.95,44.021c0.01,0.012,0.019,0.023,0.028,0.034
		c15.563,4.926,36.471,3.533,57.801-4.314c-3.055,7.318-7.14,13.442-11.172,17.572c22.516,2.575,38.366-2.813,63.881-21.096
		c-2.735,6.833-5.974,12.694-9.529,17.247c19.849,4.286,46.924-1.907,72.016-18.114c-1.36-27.233-9.033-54.025-22.673-78.019
		C442.211,293.07,431.229,304.378,419.741,310.479z"/>
	<path fill="#DA2A2F" d="M425.82,428.066c-30.937,2.234-58.685-5.957-74.231-19.958c7.757-2.895,14.145-6.727,18.514-10.777
		c-30.757-3.171-56.578-15.964-69.508-32.385c-0.01-0.011-0.019-0.022-0.028-0.034c-0.036-0.046-0.075-0.091-0.11-0.138
		c3.492,15.956,15.158,33.408,32.659,47.983c-7.861,1.012-15.213,0.534-20.796-0.884c9.018,20.785,21.616,31.811,50.209,44.768
		c-7.287,1.053-13.985,1.173-19.703,0.376c6.288,19.564,25.579,40.169,52.665,53.793c16.847-11.165,32.038-25.446,44.65-42.725
		c3.889-5.33,7.422-10.809,10.627-16.403c-17.223-0.109-32.517-3.968-43.55-10.875C414.26,436.868,420.51,432.548,425.82,428.066z"
		/>
	<polyline fill="none" stroke="#DA2A2F" stroke-width="0" stroke-linecap="round" stroke-linejoin="round" points="298.91,177.886 
		298.91,177.886 298.901,177.886 	"/>
	<path fill="#DA2A2F" d="M482.415,336.193c-7.649-49.065-33.955-92.209-74.069-121.483c-32.041-23.392-69.89-35.763-109.436-35.766
		c-0.003,0-0.006,0-0.01,0h-0.016c-59.229,0.009-115.419,28.536-150.296,76.314c-60.436,82.791-42.248,199.321,40.542,259.759
		c32.059,23.393,69.903,35.756,109.461,35.756c59.239,0,115.421-28.528,150.305-76.308
		C478.169,434.36,490.081,385.257,482.415,336.193z M449.906,451.19c-3.185,5.563-6.697,11.011-10.567,16.311
		c-12.54,17.181-27.646,31.382-44.397,42.482c-28.028,18.575-60.677,28.438-93.719,28.938c-0.88,0.013-1.76,0.037-2.64,0.037
		c-25.891,0-51.942-5.759-76.14-17.589c-9.081-4.439-17.903-9.729-26.354-15.898c-19.557-14.277-35.261-31.867-46.915-51.438
		c-13.951-23.424-22.082-49.683-24.053-76.49c-2.476-33.699,4.794-68.26,22.521-99.148c3.164-5.514,6.649-10.915,10.484-16.167
		c12.84-17.592,28.364-32.068,45.596-43.283c28.505-18.552,61.686-28.179,95.152-28.183c0.293,0,0.585,0.006,0.877,0.008
		c27.017,0.135,54.178,6.541,79.202,19.571c7.699,4.008,15.196,8.635,22.423,13.908c20.56,15.01,36.865,33.682,48.679,54.464
		c13.563,23.858,21.193,50.498,22.545,77.577C474.216,388.63,466.858,421.59,449.906,451.19z"/>
</g>
<g id="layer1" transform="translate(-559.28571,-488.79075)" inkscape:label="Layer 1" inkscape:groupmode="layer">
	<g id="g27" transform="translate(491.78471,169.30575)">
		<path id="path29" fill="#DA2A2F" d="M189.787,576.361c-11.723,19.254-20.068,39.979-24.976,61.346l-42.387,14.453
			c-2.953,22.525-2.82,45.353,0.42,67.831l42.554,13.933c5.161,21.296,13.764,41.923,25.743,61.047l-19.769,40.215
			c6.819,8.858,14.294,17.397,22.488,25.485c8.184,8.086,16.806,15.472,25.748,22.164l39.991-20.224
			c19.242,11.716,39.977,20.057,61.349,24.976l14.468,42.392c22.505,2.96,45.333,2.826,67.812-0.412l13.942-42.557
			c21.296-5.165,41.922-13.771,61.053-25.715l40.193,19.744c8.867-6.825,17.415-14.294,25.499-22.485
			c8.098-8.188,15.445-16.815,22.177-25.771l-20.224-39.97c11.709-19.258,20.07-39.977,24.958-61.338l42.4-14.47
			c2.952-22.504,2.817-45.336-0.405-67.826l-42.574-13.957c-5.17-21.291-13.783-41.91-25.712-61.021l19.741-40.231
			c-6.822-8.858-14.309-17.377-22.492-25.463c-8.19-8.101-16.805-15.49-25.762-22.192l-39.967,20.255
			c-19.269-11.738-39.992-20.098-61.339-25.007l-14.455-42.391c-22.525-2.951-45.364-2.8-67.842,0.422l-13.945,42.575
			c-21.307,5.165-41.918,13.751-61.032,25.71l-40.238-19.746c-8.856,6.82-17.384,14.292-25.479,22.484
			c-8.093,8.19-15.459,16.805-22.188,25.768L189.787,576.361 M435.998,868.432c-101.542,37.653-214.384-14.119-252.039-115.671
			c-37.664-101.556,14.122-214.38,115.663-252.042c101.541-37.655,214.396,14.107,252.061,115.67
			C589.338,717.929,537.541,830.776,435.998,868.432z"/>
	</g>
</g>
</svg>
