<?xml version="1.0" encoding="UTF-8" standalone="no"?>
<!-- Created with Inkscape (http://www.inkscape.org/) -->

<svg
   xmlns:dc="http://purl.org/dc/elements/1.1/"
   xmlns:cc="http://creativecommons.org/ns#"
   xmlns:rdf="http://www.w3.org/1999/02/22-rdf-syntax-ns#"
   xmlns:svg="http://www.w3.org/2000/svg"
   xmlns="http://www.w3.org/2000/svg"
   xmlns:sodipodi="http://sodipodi.sourceforge.net/DTD/sodipodi-0.dtd"
   xmlns:inkscape="http://www.inkscape.org/namespaces/inkscape"
   id="svg2"
   version="1.1"
   inkscape:version="0.91 r13725"
   width="3005.5066"
   height="351.42749"
   xml:space="preserve"
   sodipodi:docname="new-peppermint-logo-white.svg"><metadata
     id="metadata8"><rdf:RDF><cc:Work
         rdf:about=""><dc:format>image/svg+xml</dc:format><dc:type
           rdf:resource="http://purl.org/dc/dcmitype/StillImage" /><dc:title></dc:title></cc:Work></rdf:RDF></metadata><defs
     id="defs6"><clipPath
       clipPathUnits="userSpaceOnUse"
       id="clipPath20"><path
         d="m 0,117.742 473.5,0 L 473.5,0 0,0 0,117.742 z"
         id="path22"
         inkscape:connector-curvature="0" /></clipPath><clipPath
       clipPathUnits="userSpaceOnUse"
       id="clipPath64"><path
         d="M 31.832,64.62 C 28.452,52.894 35.217,40.648 46.944,37.267 l 0,0 c 11.727,-3.38 23.973,3.386 27.353,15.113 l 0,0 c 3.38,11.727 -3.385,23.972 -15.112,27.353 l 0,0 c -2.045,0.589 -4.105,0.87 -6.131,0.87 l 0,0 c -9.596,0 -18.432,-6.301 -21.222,-15.983"
         id="path66"
         inkscape:connector-curvature="0" /></clipPath><clipPath
       clipPathUnits="userSpaceOnUse"
       id="clipPath96"><path
         d="m 0,117.742 473.5,0 L 473.5,0 0,0 0,117.742 z"
         id="path98"
         inkscape:connector-curvature="0" /></clipPath></defs><sodipodi:namedview
     pagecolor="#ffffff"
     bordercolor="#666666"
     borderopacity="1"
     objecttolerance="10"
     gridtolerance="10"
     guidetolerance="10"
     inkscape:pageopacity="0"
     inkscape:pageshadow="2"
     inkscape:window-width="1366"
     inkscape:window-height="717"
     id="namedview4"
     showgrid="false"
     inkscape:zoom="1"
     inkscape:cx="-76.772324"
     inkscape:cy="155.6217"
     inkscape:window-x="0"
     inkscape:window-y="0"
     inkscape:window-maximized="1"
     inkscape:current-layer="g10"
     fit-margin-top="0"
     fit-margin-left="0"
     fit-margin-right="0"
     fit-margin-bottom="0" /><g
     inkscape:groupmode="layer"
     id="layer1"
     inkscape:label="Layer"><path
       sodipodi:type="arc"
       style="fill:#ffffff"
       id="path3103"
       sodipodi:cx="192.5"
       sodipodi:cy="199.42749"
       sodipodi:rx="142.5"
       sodipodi:ry="138"
       d="m 335,199.42749 a 142.5,138 0 1 1 -285,0 142.5,138 0 1 1 285,0 z"
       transform="matrix(1.1929825,0,0,1.2246376,-53.649123,-68.79893)" /></g><g
     id="g10"
     inkscape:groupmode="layer"
     inkscape:label="Peppermint Logo Final"
     transform="matrix(1.25,0,0,-1.25,1215.237,248.839)"><g
       id="g12"
       transform="matrix(6,0,0,6,-242.38967,104.8058)"
       style="fill:#ffffff"><path
         d="m 0,0 1.182,5.612 -25.556,0 -5.539,-26.661 25.703,0 1.146,5.613 -14.846,0 1.034,4.912 13.774,0 1.145,5.613 -13.774,0 L -14.697,0 0,0 z"
         style="fill:#ffffff;fill-opacity:1;fill-rule:nonzero;stroke:none"
         id="path14"
         inkscape:connector-curvature="0" /></g><g
       id="g16"
       transform="matrix(6,0,0,6,-1150.0655,-292.501)"
       style="fill:#ffffff"><g
         id="g18"
         clip-path="url(#clipPath20)"
         style="fill:#ffffff"><g
           id="g24"
           transform="translate(174.9873,62.8584)"
           style="fill:#ffffff"><path
             d="m 0,0 c -0.271,-1.306 -0.868,-2.217 -1.791,-2.733 -0.925,-0.518 -2.381,-0.776 -4.377,-0.776 l -2.288,0 1.44,6.868 3.397,0 c 1.354,0 2.313,-0.198 2.881,-0.59 C -0.174,2.374 0.109,1.784 0.109,0.996 0.109,0.701 0.074,0.369 0,0 M 8.678,7.495 C 7.864,8.013 6.887,8.388 5.741,8.621 4.598,8.855 3.334,8.972 1.956,8.972 l -19.018,0 -5.539,-26.661 11.227,0 1.772,8.568 8.79,0 c 1.403,0 2.738,0.153 4.006,0.46 1.267,0.308 2.419,0.812 3.453,1.515 1.034,0.701 1.919,1.612 2.658,2.731 0.739,1.12 1.28,2.493 1.626,4.118 0.124,0.493 0.202,0.954 0.24,1.386 0.037,0.43 0.056,0.855 0.056,1.273 0,1.232 -0.224,2.266 -0.665,3.102 -0.444,0.837 -1.071,1.515 -1.884,2.031"
             style="fill:#ffffff;fill-opacity:1;fill-rule:nonzero;stroke:none"
             id="path26"
             inkscape:connector-curvature="0" /></g><g
           id="g28"
           transform="translate(209.6621,62.8584)"
           style="fill:#ffffff"><path
             d="m 0,0 c -0.271,-1.306 -0.869,-2.217 -1.791,-2.733 -0.925,-0.518 -2.382,-0.776 -4.377,-0.776 l -2.289,0 1.44,6.868 3.397,0 c 1.354,0 2.314,-0.198 2.881,-0.59 C -0.175,2.374 0.109,1.784 0.109,0.996 0.109,0.701 0.074,0.369 0,0 M 8.677,7.495 C 7.864,8.013 6.886,8.388 5.74,8.621 4.598,8.855 3.334,8.972 1.956,8.972 l -19.018,0 -5.539,-26.661 11.226,0 1.772,8.568 8.79,0 c 1.403,0 2.739,0.153 4.007,0.46 1.267,0.308 2.419,0.812 3.452,1.515 1.035,0.701 1.919,1.612 2.659,2.731 0.738,1.12 1.28,2.493 1.626,4.118 0.123,0.493 0.202,0.954 0.239,1.386 0.037,0.43 0.056,0.855 0.056,1.273 0,1.232 -0.223,2.266 -0.664,3.102 C 10.117,6.301 9.49,6.979 8.677,7.495"
             style="fill:#ffffff;fill-opacity:1;fill-rule:nonzero;stroke:none"
             id="path30"
             inkscape:connector-curvature="0" /></g><g
           id="g32"
           transform="translate(251.6475,66.2178)"
           style="fill:#ffffff"><path
             d="m 0,0 1.183,5.612 -25.553,0 -5.541,-26.661 25.701,0 1.146,5.613 -14.845,0 1.033,4.912 13.774,0 1.146,5.613 -13.774,0 L -14.696,0 0,0 z"
             style="fill:#ffffff;fill-opacity:1;fill-rule:nonzero;stroke:none"
             id="path34"
             inkscape:connector-curvature="0" /></g><g
           id="g36"
           transform="translate(276.2441,63.2637)"
           style="fill:#ffffff"><path
             d="m 0,0 c -0.272,-1.256 -0.857,-2.111 -1.754,-2.566 -0.899,-0.455 -1.952,-0.683 -3.158,-0.683 l -4.283,0 1.328,6.425 4.098,0 c 1.183,0 2.123,-0.173 2.826,-0.518 C -0.242,2.313 0.109,1.711 0.109,0.849 0.109,0.578 0.071,0.296 0,0 M 8.658,7.478 C 7.76,7.884 6.665,8.167 5.371,8.327 4.079,8.487 2.632,8.566 1.033,8.566 l -18.98,0 -5.541,-26.661 11.228,0 1.993,9.675 3.397,0 c 0.862,0 1.557,-0.031 2.086,-0.092 0.53,-0.062 0.943,-0.191 1.238,-0.387 0.295,-0.198 0.497,-0.481 0.609,-0.851 0.112,-0.369 0.167,-0.848 0.167,-1.439 0,-0.147 -0.006,-0.296 -0.018,-0.443 -0.014,-0.148 -0.019,-0.32 -0.019,-0.517 l -0.295,-5.946 11.226,0 0.404,8.937 0,0.221 c 0,0.64 -0.109,1.176 -0.332,1.607 -0.22,0.431 -0.53,0.782 -0.923,1.053 -0.394,0.27 -0.861,0.466 -1.403,0.59 -0.541,0.124 -1.119,0.197 -1.735,0.221 l 0.074,0.37 c 0.862,0.149 1.68,0.394 2.456,0.739 0.776,0.343 1.471,0.787 2.086,1.329 0.616,0.541 1.139,1.164 1.568,1.865 0.433,0.702 0.746,1.496 0.944,2.382 0.146,0.689 0.22,1.328 0.22,1.921 0,1.083 -0.246,1.974 -0.738,2.676 -0.493,0.702 -1.187,1.255 -2.087,1.662"
             style="fill:#ffffff;fill-opacity:1;fill-rule:nonzero;stroke:none"
             id="path38"
             inkscape:connector-curvature="0" /></g><g
           id="g40"
           transform="translate(313.3926,53.958)"
           style="fill:#ffffff"><path
             d="m 0,0 -0.074,0 -1.848,17.872 -17.021,0 -5.541,-26.661 9.527,0 4.138,20.052 0.109,0 2.731,-20.052 10.86,0 11.446,20.052 0.074,0 -4.134,-20.052 10.412,0 5.539,26.661 -17.097,0 L 0,0 z"
             style="fill:#ffffff;fill-opacity:1;fill-rule:nonzero;stroke:none"
             id="path42"
             inkscape:connector-curvature="0" /></g><g
           id="g44"
           transform="translate(340.0908,45.1689)"
           style="fill:#ffffff"><path
             d="m 0,0 11.227,0 5.538,26.661 -11.226,0 L 0,0 z"
             style="fill:#ffffff;fill-opacity:1;fill-rule:nonzero;stroke:none"
             id="path46"
             inkscape:connector-curvature="0" /></g><g
           id="g48"
           transform="translate(384.5879,53.958)"
           style="fill:#ffffff"><path
             d="m 0,0 -0.108,0 -5.245,17.872 -16.434,0 -5.538,-26.661 9.748,0 3.915,18.98 0.074,0 5.612,-18.98 15.917,0 5.538,26.661 -9.748,0 L 0,0 z"
             style="fill:#ffffff;fill-opacity:1;fill-rule:nonzero;stroke:none"
             id="path50"
             inkscape:connector-curvature="0" /></g><g
           id="g52"
           transform="translate(400.2842,65.332)"
           style="fill:#ffffff"><path
             d="m 0,0 8.752,0 -4.173,-20.163 11.226,0 4.173,20.163 8.751,0 1.367,6.498 -28.73,0 L 0,0 z"
             style="fill:#ffffff;fill-opacity:1;fill-rule:nonzero;stroke:none"
             id="path54"
             inkscape:connector-curvature="0" /></g><g
           id="g56"
           transform="translate(109.9746,62.7881)"
           style="fill:#ffffff"><path
             d="m 0,0 c -0.268,-1.301 -0.864,-2.208 -1.782,-2.723 -0.92,-0.514 -2.372,-0.771 -4.358,-0.771 l -2.283,0 1.436,6.841 3.383,0 c 1.349,0 2.305,-0.197 2.87,-0.589 C -0.169,2.366 0.112,1.775 0.112,0.991 0.112,0.698 0.074,0.367 0,0 M 8.646,7.467 C 7.834,7.98 6.86,8.354 5.72,8.587 4.579,8.819 3.322,8.937 1.95,8.937 l -18.94,0 -8.145,0 7.295,-4.077 -4.669,-22.479 11.181,0 1.766,8.533 8.752,0 c 1.4,0 2.73,0.152 3.993,0.462 1.263,0.305 2.41,0.809 3.438,1.506 1.031,0.699 1.913,1.605 2.651,2.722 0.732,1.117 1.274,2.482 1.618,4.101 0.118,0.49 0.199,0.95 0.237,1.38 0.039,0.429 0.056,0.851 0.056,1.267 0,1.226 -0.221,2.255 -0.662,3.089 -0.44,0.834 -1.065,1.509 -1.875,2.026"
             style="fill:#ffffff;fill-opacity:1;fill-rule:nonzero;stroke:none"
             id="path58"
             inkscape:connector-curvature="0" /></g></g></g><g
       id="g60"
       transform="matrix(6,0,0,6,-1150.0655,-292.501)"><g
         id="g62"
         clip-path="url(#clipPath64)"><g
           id="g68"
           transform="translate(53.062,58.4985)"><path
             d="M 0,0 C 1.514,1.38 2.678,3.741 3.164,6.556 3.767,5.765 4.176,4.938 4.372,4.242 c 1.691,2.282 2.1,4.342 1.715,8.26 0.57,-0.725 1.003,-1.445 1.275,-2.116 1.763,1.946 2.798,5.423 2.528,9.304 0,0 -2.218,2.773 -5.247,4.097 -3.028,1.323 -7.146,1.318 -7.146,1.318 2.709,-2.793 4.16,-6.118 4.066,-8.741 -0.869,0.518 -1.73,0.926 -2.551,1.221 C 1.196,14.366 2.046,10.839 1.5,8.271 0.699,8.932 -0.118,9.385 -0.832,9.605 0.758,6.054 0.985,2.434 0,0"
             style="fill:#da2a2f;fill-opacity:1;fill-rule:evenodd;stroke:none"
             id="path70"
             inkscape:connector-curvature="0" /></g><g
           id="g72"
           transform="translate(53.0605,58.501)"><path
             d="m 0,0 c -0.437,2.001 -1.901,4.189 -4.095,6.018 0.986,0.127 1.907,0.067 2.608,-0.111 -1.131,2.607 -2.711,3.99 -6.297,5.615 0.914,0.132 1.754,0.148 2.471,0.046 -0.803,2.5 -3.297,5.136 -6.793,6.842 0,0 -3.512,-0.534 -6.172,-2.495 -2.66,-1.962 -4.715,-5.53 -4.715,-5.53 3.773,0.949 7.378,0.543 9.603,-0.849 -0.882,-0.494 -1.666,-1.036 -2.333,-1.598 3.881,0.28 7.361,-0.746 9.31,-2.504 C -7.386,5.071 -8.186,4.591 -8.734,4.083 -4.864,3.685 -1.615,2.069 0,0"
             style="fill:#da2a2f;fill-opacity:1;fill-rule:evenodd;stroke:none"
             id="path74"
             inkscape:connector-curvature="0" /></g><g
           id="g76"
           transform="translate(53.0601,58.4985)"><path
             d="m 0,0 c -1.952,0.622 -4.579,0.449 -7.259,-0.538 0.383,0.917 0.895,1.686 1.401,2.204 -2.824,0.324 -4.812,-0.353 -8.013,-2.647 0.344,0.857 0.749,1.593 1.196,2.165 -2.567,0.553 -6.096,-0.289 -9.322,-2.464 0,0 -1.293,-3.308 -0.925,-6.592 0.369,-3.285 2.432,-6.848 2.432,-6.848 1.065,3.742 3.219,6.661 5.537,7.892 -0.014,-1.012 0.063,-1.961 0.217,-2.819 1.698,3.501 4.326,6.001 6.823,6.811 -0.172,-1.025 -0.156,-1.958 0.011,-2.686 C -5.623,-2.37 -2.6,-0.363 0,0"
             style="fill:#da2a2f;fill-opacity:1;fill-rule:evenodd;stroke:none"
             id="path78"
             inkscape:connector-curvature="0" /></g><g
           id="g80"
           transform="translate(53.0645,58.5)"><path
             d="m 0,0 c -1.515,-1.38 -2.678,-3.741 -3.164,-6.555 -0.603,0.789 -1.012,1.618 -1.208,2.314 -1.692,-2.283 -2.1,-4.344 -1.714,-8.262 -0.571,0.727 -1.005,1.446 -1.276,2.117 -1.763,-1.946 -2.798,-5.423 -2.528,-9.304 0,0 2.219,-2.773 5.248,-4.096 3.027,-1.324 7.145,-1.319 7.145,-1.319 -2.709,2.792 -4.16,6.118 -4.066,8.741 0.869,-0.518 1.73,-0.926 2.55,-1.222 -2.183,3.221 -3.034,6.747 -2.487,9.315 0.801,-0.66 1.617,-1.114 2.332,-1.333 C -0.759,-6.054 -0.985,-2.433 0,0"
             style="fill:#da2a2f;fill-opacity:1;fill-rule:evenodd;stroke:none"
             id="path82"
             inkscape:connector-curvature="0" /></g><g
           id="g84"
           transform="translate(53.0605,58.501)"><path
             d="M 0,0 C 0.438,-2.001 1.901,-4.19 4.096,-6.018 3.11,-6.145 2.188,-6.085 1.488,-5.907 c 1.131,-2.607 2.711,-3.99 6.297,-5.615 -0.914,-0.132 -1.754,-0.147 -2.471,-0.047 0.803,-2.499 3.297,-5.134 6.793,-6.841 0,0 3.511,0.535 6.172,2.496 2.66,1.961 4.715,5.53 4.715,5.53 -3.773,-0.951 -7.379,-0.545 -9.604,0.848 0.883,0.494 1.667,1.036 2.333,1.598 -3.88,-0.28 -7.36,0.747 -9.31,2.503 0.973,0.363 1.774,0.844 2.322,1.352 C 4.864,-3.684 1.616,-2.07 0,0"
             style="fill:#da2a2f;fill-opacity:1;fill-rule:evenodd;stroke:none"
             id="path86"
             inkscape:connector-curvature="0" /></g><g
           id="g88"
           transform="translate(53.0605,58.5015)"><path
             d="M 0,0 C 1.953,-0.622 4.58,-0.448 7.26,0.538 6.877,-0.38 6.365,-1.148 5.859,-1.666 c 2.824,-0.323 4.812,0.353 8.012,2.646 -0.343,-0.857 -0.749,-1.592 -1.195,-2.163 2.566,-0.554 6.095,0.288 9.322,2.463 0,0 1.293,3.308 0.924,6.593 -0.369,3.284 -2.431,6.848 -2.431,6.848 C 19.427,10.978 17.272,8.059 14.954,6.828 14.967,7.839 14.89,8.79 14.737,9.648 13.039,6.147 10.41,3.646 7.913,2.836 8.085,3.861 8.069,4.794 7.903,5.522 5.623,2.37 2.601,0.364 0,0"
             style="fill:#da2a2f;fill-opacity:1;fill-rule:evenodd;stroke:none"
             id="path90"
             inkscape:connector-curvature="0" /></g></g></g><g
       id="g92"
       transform="matrix(6,0,0,6,-1150.0655,-292.501)"><g
         id="g94"
         clip-path="url(#clipPath96)"><g
           id="g100"
           transform="translate(53.0845,81.9287)"><path
             d="M 0,0 0,-1.489 0,0 -0.002,0 c -7.464,-0.001 -14.545,-3.596 -18.94,-9.617 -7.616,-10.433 -5.324,-25.118 5.109,-32.734 4.04,-2.948 8.809,-4.506 13.794,-4.506 7.465,0 14.545,3.595 18.941,9.616 3.689,5.054 5.19,11.242 4.224,17.425 -0.964,6.183 -4.279,11.62 -9.334,15.309 C 9.754,-1.559 4.984,0 0,0 m -0.002,-1.489 c 4.488,0 9.014,-1.372 12.917,-4.22 9.785,-7.144 11.928,-20.868 4.784,-30.654 -4.295,-5.884 -10.971,-9.005 -17.738,-9.005 -4.487,0 -9.013,1.371 -12.916,4.22 -9.785,7.143 -11.927,20.867 -4.784,30.653 4.295,5.884 10.97,9.005 17.737,9.006"
             style="fill:#da2a2f;fill-opacity:1;fill-rule:nonzero;stroke:none"
             id="path102"
             inkscape:connector-curvature="0" /></g></g></g></g></svg>